7039 3779 262
31 5120 238
1545 3446 217
9071 8736 247
605 2430 183
4685 8115 262
2868 173 209
4447 7683 262
3820 2652 238
1215 5384 238
215 4723 238
7008 9972 260
6242 9920 260
8277 1 262
4876 4009 215
5884 7362 262
2277 5958 238
4971 5879 236
7494 1869 262
7154 5071 262
6936 6056 262
7479 8286 252
4880 2859 238
2437 3169 217
8804 6996 252
5698 144 238
78 8653 262
8838 9361 260
8735 7318 252
8338 6664 257
8323 9449 260
738 7385 262
1004 1641 182
4783 3778 215
4746 4409 184
8377 1007 262
4510 7386 262
1727 5394 238
3631 3353 194
4102 7885 262
3875 5423 215
332 925 179
289 8239 262
2592 6685 262
6105 5094 236
9790 3322 262
9347 8510 260
1005 6908 262
2623 5924 238
465 2106 182
8448 9640 260
4633 175 238
6010 9714 262
9379 5198 262
9567 2406 262
5826 9269 262
4358 6741 262
4233 2619 238
690 8898 262
3682 9105 262
4867 2594 238
3942 4241 202
3961 8623 262
5268 2011 238
9456 8143 260
757 3500 217
227 3589 217
78 8391 262
7414 8563 252
3492 6857 262
6743 1796 262
4787 5553 210
4784 6556 262
4454 5928 236
8994 3131 262
3357 949 217
1951 9931 262
4645 2282 238
4002 602 238
623 4986 238
8658 6356 257
9271 1319 262
2059 5548 238
8210 2063 262
3817 5927 236
2933 3927 238
8060 553 262
848 5168 238
6029 2143 238
4982 6634 262
5534 7743 262
850 2932 217
4990 4366 215
8891 7079 252
3075 8786 262
7703 6246 257
6929 3854 262
554 5579 238
4830 2735 238
205 4392 238
9137 9449 260
2333 1777 183
443 9860 262
5882 9868 262
3811 6626 262
5807 9335 262
1953 8691 262
6750 4146 262
5452 5985 236
9897 9315 242
8443 9665 260
2088 7515 262
9447 9949 242
586 8443 262
3831 9643 262
739 7803 262
4472 1142 238
1871 6766 262
3392 2112 217
69 862 171
538 1226 182
9863 4684 262
4071 9808 262
8833 1104 262
1264 252 182
2934 5275 238
874 4771 238
3197 3139 199
950 7865 262
7606 2071 262
812 3969 238
5777 7817 262
295 3603 217
6416 1910 262
4596 3954 215
5525 7327 262
7860 6204 257
6062 3366 238
4870 6738 262
1954 214 182
4698 7625 262
6348 8757 257
9165 4928 262
7498 1354 262
3376 7234 262
2065 7477 262
7478 5355 262
5025 3498 238
9622 5377 262
9685 8105 260
