1 10 20
100 200 125
201 210 89
900 1000 174
1 999999 525
5 5 6
10 1 20
39 75 116
92 49 116
51 25 112
10199 95346 351
150 350 144
4000 8000 262
1182 9747 262
47373 25258 324
22936 18457 274
62717 38502 340
23129 61035 340
64609 67404 268
49908 74135 340
95071 73274 351
78490 70906 351
5953 9704 262
31023 49066 324
178 188 107
183 836 171
112 205 125
609 960 179
441 882 179
891 907 117
547 998 179
492 380 142
367 716 171
393 384 121
238 314 131
139 181 125
348 458 134
344 495 142
155 156 86
114 250 128
77 434 144
30 243 128
98 101 26
114 369 144
260950 655089 509
165913 829982 509
222003 397838 443
135542 511666 449
33309 76694 340
19 47 112
26 40 112
6 80 116
34 91 116
15 58 113
2546 2751 191
3599 4358 238
3422 4588 238
1224 2819 209
2439 3157 217
1983 4951 238
1709 3486 217
3123 4157 238
1379 1836 180
2234 4941 238
566 4978 238
1348 2580 209
4194 4356 202
2203 3345 217
3574 4388 238
641 2582 209
2731 4369 238
623 2941 217
2681 2854 173
1459 3772 238
10705 10783 193
10124 10698 255
10356 10926 255
10488 10898 255
10486 10640 255
10276 10687 255
10159 10839 255
10350 10849 255
10488 10982 268
10846 10951 206
659 750 171
218 962 179
31 763 171
3 518 144
459 559 142
180 769 171
201 561 144
586 977 179
228 689 145
598 607 119
974 980 143
576 966 179
785 821 135
25 466 144
515 881 179
15 683 145
465 827 171
54 200 125
617 827 171
581 953 179
105833 105833 80
